{
  "cluster": {
    "enable": true,
    "priority": 1
  },
  "redis": {
    "host": "127.0.0.1",
    "port": 6379,
    "auth": "pass",
    "slot": 0
  },
  "mongo": {
    "host": "127.0.0.1",
    "port": 27017,
    "auth": "pass"
  },
  "melo": {
    "port": 3001,
    "host": "127.0.0.1"
  }
}
