[
  {
    "endpoint": "/api/getUser",
    "method": "GET",
    "params": [
      "id"
    ],
    "mongo": {
      "command": "find",
      "filter": [
        "_id: ${id}"
      ],
      "projection": [
        "_id",
        "username",
        "email"
      ]
    },
    "cache": true
  }
]
